{
  "structures": [
    {
      "structure": "minecraft:fortress",
      "weight": 2
    },
    {
      "structure": "minecraft:bastion_remnant",
      "weight": 3
    }
  ],
  "placement": {
    "type": "minecraft:random_spread",
    "salt": 30084232,
    "spacing": 81,
    "separation": 12
  }
}
