{
  "structures": [
    {
      "structure": "minecraft:monument",
      "weight": 1
    }
  ],
  "placement": {
    "type": "minecraft:random_spread",
    "salt": 10387313,
    "spread_type": "triangular",
    "spacing": 128,
    "separation": 20
  }
}
