{
  "structures": [
    {
      "structure": "minecraft:ocean_ruin_cold",
      "weight": 1
    },
    {
      "structure": "minecraft:ocean_ruin_warm",
      "weight": 1
    }
  ],
  "placement": {
    "type": "minecraft:random_spread",
    "salt": 14357621,
    "spacing": 30,
    "separation": 12
  }
}
