{
  "feature": "minecraft:lake_lava",
  "placement": [
    {
      "type": "minecraft:rarity_filter",
      "chance": 800
    },
    {
      "type": "minecraft:in_square"
    },
    {
      "type": "minecraft:heightmap",
      "heightmap": "WORLD_SURFACE_WG"
    },
    {
      "type": "minecraft:biome"
    }
  ]
}
